(kicad_sch (version 20230121) (generator eeschema)

  (uuid d9aaf895-1acf-4d4a-8c6d-173b9df47c18)

  (paper "A4")

  (lib_symbols
    (symbol "Connector:Conn_Coaxial" (pin_names (offset 1.016) hide) (in_bom yes) (on_board yes)
      (property "Reference" "J" (at 0.254 3.048 0)
        (effects (font (size 1.27 1.27)))
      )
      (property "Value" "Conn_Coaxial" (at 2.921 0 90)
        (effects (font (size 1.27 1.27)))
      )
      (property "Footprint" "" (at 0 0 0)
        (effects (font (size 1.27 1.27)) hide)
      )
      (property "Datasheet" " ~" (at 0 0 0)
        (effects (font (size 1.27 1.27)) hide)
      )
      (property "ki_keywords" "BNC SMA SMB SMC LEMO coaxial connector CINCH RCA" (at 0 0 0)
        (effects (font (size 1.27 1.27)) hide)
      )
      (property "ki_description" "coaxial connector (BNC, SMA, SMB, SMC, Cinch/RCA, LEMO, ...)" (at 0 0 0)
        (effects (font (size 1.27 1.27)) hide)
      )
      (property "ki_fp_filters" "*BNC* *SMA* *SMB* *SMC* *Cinch* *LEMO*" (at 0 0 0)
        (effects (font (size 1.27 1.27)) hide)
      )
      (symbol "Conn_Coaxial_0_1"
        (arc (start -1.778 -0.508) (mid 0.2311 -1.8066) (end 1.778 0)
          (stroke (width 0.254) (type default))
          (fill (type none))
        )
        (polyline
          (pts
            (xy -2.54 0)
            (xy -0.508 0)
          )
          (stroke (width 0) (type default))
          (fill (type none))
        )
        (polyline
          (pts
            (xy 0 -2.54)
            (xy 0 -1.778)
          )
          (stroke (width 0) (type default))
          (fill (type none))
        )
        (circle (center 0 0) (radius 0.508)
          (stroke (width 0.2032) (type default))
          (fill (type none))
        )
        (arc (start 1.778 0) (mid 0.2099 1.8101) (end -1.778 0.508)
          (stroke (width 0.254) (type default))
          (fill (type none))
        )
      )
      (symbol "Conn_Coaxial_1_1"
        (pin passive line (at -5.08 0 0) (length 2.54)
          (name "In" (effects (font (size 1.27 1.27))))
          (number "1" (effects (font (size 1.27 1.27))))
        )
        (pin passive line (at 0 -5.08 90) (length 2.54)
          (name "Ext" (effects (font (size 1.27 1.27))))
          (number "2" (effects (font (size 1.27 1.27))))
        )
      )
    )
    (symbol "Connector:Screw_Terminal_01x02" (pin_names (offset 1.016) hide) (in_bom yes) (on_board yes)
      (property "Reference" "J" (at 0 2.54 0)
        (effects (font (size 1.27 1.27)))
      )
      (property "Value" "Screw_Terminal_01x02" (at 0 -5.08 0)
        (effects (font (size 1.27 1.27)))
      )
      (property "Footprint" "" (at 0 0 0)
        (effects (font (size 1.27 1.27)) hide)
      )
      (property "Datasheet" "~" (at 0 0 0)
        (effects (font (size 1.27 1.27)) hide)
      )
      (property "ki_keywords" "screw terminal" (at 0 0 0)
        (effects (font (size 1.27 1.27)) hide)
      )
      (property "ki_description" "Generic screw terminal, single row, 01x02, script generated (kicad-library-utils/schlib/autogen/connector/)" (at 0 0 0)
        (effects (font (size 1.27 1.27)) hide)
      )
      (property "ki_fp_filters" "TerminalBlock*:*" (at 0 0 0)
        (effects (font (size 1.27 1.27)) hide)
      )
      (symbol "Screw_Terminal_01x02_1_1"
        (rectangle (start -1.27 1.27) (end 1.27 -3.81)
          (stroke (width 0.254) (type default))
          (fill (type background))
        )
        (circle (center 0 -2.54) (radius 0.635)
          (stroke (width 0.1524) (type default))
          (fill (type none))
        )
        (polyline
          (pts
            (xy -0.5334 -2.2098)
            (xy 0.3302 -3.048)
          )
          (stroke (width 0.1524) (type default))
          (fill (type none))
        )
        (polyline
          (pts
            (xy -0.5334 0.3302)
            (xy 0.3302 -0.508)
          )
          (stroke (width 0.1524) (type default))
          (fill (type none))
        )
        (polyline
          (pts
            (xy -0.3556 -2.032)
            (xy 0.508 -2.8702)
          )
          (stroke (width 0.1524) (type default))
          (fill (type none))
        )
        (polyline
          (pts
            (xy -0.3556 0.508)
            (xy 0.508 -0.3302)
          )
          (stroke (width 0.1524) (type default))
          (fill (type none))
        )
        (circle (center 0 0) (radius 0.635)
          (stroke (width 0.1524) (type default))
          (fill (type none))
        )
        (pin passive line (at -5.08 0 0) (length 3.81)
          (name "Pin_1" (effects (font (size 1.27 1.27))))
          (number "1" (effects (font (size 1.27 1.27))))
        )
        (pin passive line (at -5.08 -2.54 0) (length 3.81)
          (name "Pin_2" (effects (font (size 1.27 1.27))))
          (number "2" (effects (font (size 1.27 1.27))))
        )
      )
    )
    (symbol "Connector_Generic:Conn_01x02" (pin_names (offset 1.016) hide) (in_bom yes) (on_board yes)
      (property "Reference" "J" (at 0 2.54 0)
        (effects (font (size 1.27 1.27)))
      )
      (property "Value" "Conn_01x02" (at 0 -5.08 0)
        (effects (font (size 1.27 1.27)))
      )
      (property "Footprint" "" (at 0 0 0)
        (effects (font (size 1.27 1.27)) hide)
      )
      (property "Datasheet" "~" (at 0 0 0)
        (effects (font (size 1.27 1.27)) hide)
      )
      (property "ki_keywords" "connector" (at 0 0 0)
        (effects (font (size 1.27 1.27)) hide)
      )
      (property "ki_description" "Generic connector, single row, 01x02, script generated (kicad-library-utils/schlib/autogen/connector/)" (at 0 0 0)
        (effects (font (size 1.27 1.27)) hide)
      )
      (property "ki_fp_filters" "Connector*:*_1x??_*" (at 0 0 0)
        (effects (font (size 1.27 1.27)) hide)
      )
      (symbol "Conn_01x02_1_1"
        (rectangle (start -1.27 -2.413) (end 0 -2.667)
          (stroke (width 0.1524) (type default))
          (fill (type none))
        )
        (rectangle (start -1.27 0.127) (end 0 -0.127)
          (stroke (width 0.1524) (type default))
          (fill (type none))
        )
        (rectangle (start -1.27 1.27) (end 1.27 -3.81)
          (stroke (width 0.254) (type default))
          (fill (type background))
        )
        (pin passive line (at -5.08 0 0) (length 3.81)
          (name "Pin_1" (effects (font (size 1.27 1.27))))
          (number "1" (effects (font (size 1.27 1.27))))
        )
        (pin passive line (at -5.08 -2.54 0) (length 3.81)
          (name "Pin_2" (effects (font (size 1.27 1.27))))
          (number "2" (effects (font (size 1.27 1.27))))
        )
      )
    )
    (symbol "Connector_Generic:Conn_01x03" (pin_names (offset 1.016) hide) (in_bom yes) (on_board yes)
      (property "Reference" "J" (at 0 5.08 0)
        (effects (font (size 1.27 1.27)))
      )
      (property "Value" "Conn_01x03" (at 0 -5.08 0)
        (effects (font (size 1.27 1.27)))
      )
      (property "Footprint" "" (at 0 0 0)
        (effects (font (size 1.27 1.27)) hide)
      )
      (property "Datasheet" "~" (at 0 0 0)
        (effects (font (size 1.27 1.27)) hide)
      )
      (property "ki_keywords" "connector" (at 0 0 0)
        (effects (font (size 1.27 1.27)) hide)
      )
      (property "ki_description" "Generic connector, single row, 01x03, script generated (kicad-library-utils/schlib/autogen/connector/)" (at 0 0 0)
        (effects (font (size 1.27 1.27)) hide)
      )
      (property "ki_fp_filters" "Connector*:*_1x??_*" (at 0 0 0)
        (effects (font (size 1.27 1.27)) hide)
      )
      (symbol "Conn_01x03_1_1"
        (rectangle (start -1.27 -2.413) (end 0 -2.667)
          (stroke (width 0.1524) (type default))
          (fill (type none))
        )
        (rectangle (start -1.27 0.127) (end 0 -0.127)
          (stroke (width 0.1524) (type default))
          (fill (type none))
        )
        (rectangle (start -1.27 2.667) (end 0 2.413)
          (stroke (width 0.1524) (type default))
          (fill (type none))
        )
        (rectangle (start -1.27 3.81) (end 1.27 -3.81)
          (stroke (width 0.254) (type default))
          (fill (type background))
        )
        (pin passive line (at -5.08 2.54 0) (length 3.81)
          (name "Pin_1" (effects (font (size 1.27 1.27))))
          (number "1" (effects (font (size 1.27 1.27))))
        )
        (pin passive line (at -5.08 0 0) (length 3.81)
          (name "Pin_2" (effects (font (size 1.27 1.27))))
          (number "2" (effects (font (size 1.27 1.27))))
        )
        (pin passive line (at -5.08 -2.54 0) (length 3.81)
          (name "Pin_3" (effects (font (size 1.27 1.27))))
          (number "3" (effects (font (size 1.27 1.27))))
        )
      )
    )
    (symbol "Device:R" (pin_numbers hide) (pin_names (offset 0)) (in_bom yes) (on_board yes)
      (property "Reference" "R" (at 2.032 0 90)
        (effects (font (size 1.27 1.27)))
      )
      (property "Value" "R" (at 0 0 90)
        (effects (font (size 1.27 1.27)))
      )
      (property "Footprint" "" (at -1.778 0 90)
        (effects (font (size 1.27 1.27)) hide)
      )
      (property "Datasheet" "~" (at 0 0 0)
        (effects (font (size 1.27 1.27)) hide)
      )
      (property "ki_keywords" "R res resistor" (at 0 0 0)
        (effects (font (size 1.27 1.27)) hide)
      )
      (property "ki_description" "Resistor" (at 0 0 0)
        (effects (font (size 1.27 1.27)) hide)
      )
      (property "ki_fp_filters" "R_*" (at 0 0 0)
        (effects (font (size 1.27 1.27)) hide)
      )
      (symbol "R_0_1"
        (rectangle (start -1.016 -2.54) (end 1.016 2.54)
          (stroke (width 0.254) (type default))
          (fill (type none))
        )
      )
      (symbol "R_1_1"
        (pin passive line (at 0 3.81 270) (length 1.27)
          (name "~" (effects (font (size 1.27 1.27))))
          (number "1" (effects (font (size 1.27 1.27))))
        )
        (pin passive line (at 0 -3.81 90) (length 1.27)
          (name "~" (effects (font (size 1.27 1.27))))
          (number "2" (effects (font (size 1.27 1.27))))
        )
      )
    )
    (symbol "power:+3V3" (power) (pin_names (offset 0)) (in_bom yes) (on_board yes)
      (property "Reference" "#PWR" (at 0 -3.81 0)
        (effects (font (size 1.27 1.27)) hide)
      )
      (property "Value" "+3V3" (at 0 3.556 0)
        (effects (font (size 1.27 1.27)))
      )
      (property "Footprint" "" (at 0 0 0)
        (effects (font (size 1.27 1.27)) hide)
      )
      (property "Datasheet" "" (at 0 0 0)
        (effects (font (size 1.27 1.27)) hide)
      )
      (property "ki_keywords" "global power" (at 0 0 0)
        (effects (font (size 1.27 1.27)) hide)
      )
      (property "ki_description" "Power symbol creates a global label with name \"+3V3\"" (at 0 0 0)
        (effects (font (size 1.27 1.27)) hide)
      )
      (symbol "+3V3_0_1"
        (polyline
          (pts
            (xy -0.762 1.27)
            (xy 0 2.54)
          )
          (stroke (width 0) (type default))
          (fill (type none))
        )
        (polyline
          (pts
            (xy 0 0)
            (xy 0 2.54)
          )
          (stroke (width 0) (type default))
          (fill (type none))
        )
        (polyline
          (pts
            (xy 0 2.54)
            (xy 0.762 1.27)
          )
          (stroke (width 0) (type default))
          (fill (type none))
        )
      )
      (symbol "+3V3_1_1"
        (pin power_in line (at 0 0 90) (length 0) hide
          (name "+3V3" (effects (font (size 1.27 1.27))))
          (number "1" (effects (font (size 1.27 1.27))))
        )
      )
    )
    (symbol "power:+48V" (power) (pin_names (offset 0)) (in_bom yes) (on_board yes)
      (property "Reference" "#PWR" (at 0 -3.81 0)
        (effects (font (size 1.27 1.27)) hide)
      )
      (property "Value" "+48V" (at 0 3.556 0)
        (effects (font (size 1.27 1.27)))
      )
      (property "Footprint" "" (at 0 0 0)
        (effects (font (size 1.27 1.27)) hide)
      )
      (property "Datasheet" "" (at 0 0 0)
        (effects (font (size 1.27 1.27)) hide)
      )
      (property "ki_keywords" "global power" (at 0 0 0)
        (effects (font (size 1.27 1.27)) hide)
      )
      (property "ki_description" "Power symbol creates a global label with name \"+48V\"" (at 0 0 0)
        (effects (font (size 1.27 1.27)) hide)
      )
      (symbol "+48V_0_1"
        (polyline
          (pts
            (xy -0.762 1.27)
            (xy 0 2.54)
          )
          (stroke (width 0) (type default))
          (fill (type none))
        )
        (polyline
          (pts
            (xy 0 0)
            (xy 0 2.54)
          )
          (stroke (width 0) (type default))
          (fill (type none))
        )
        (polyline
          (pts
            (xy 0 2.54)
            (xy 0.762 1.27)
          )
          (stroke (width 0) (type default))
          (fill (type none))
        )
      )
      (symbol "+48V_1_1"
        (pin power_in line (at 0 0 90) (length 0) hide
          (name "+48V" (effects (font (size 1.27 1.27))))
          (number "1" (effects (font (size 1.27 1.27))))
        )
      )
    )
    (symbol "power:GND" (power) (pin_names (offset 0)) (in_bom yes) (on_board yes)
      (property "Reference" "#PWR" (at 0 -6.35 0)
        (effects (font (size 1.27 1.27)) hide)
      )
      (property "Value" "GND" (at 0 -3.81 0)
        (effects (font (size 1.27 1.27)))
      )
      (property "Footprint" "" (at 0 0 0)
        (effects (font (size 1.27 1.27)) hide)
      )
      (property "Datasheet" "" (at 0 0 0)
        (effects (font (size 1.27 1.27)) hide)
      )
      (property "ki_keywords" "global power" (at 0 0 0)
        (effects (font (size 1.27 1.27)) hide)
      )
      (property "ki_description" "Power symbol creates a global label with name \"GND\" , ground" (at 0 0 0)
        (effects (font (size 1.27 1.27)) hide)
      )
      (symbol "GND_0_1"
        (polyline
          (pts
            (xy 0 0)
            (xy 0 -1.27)
            (xy 1.27 -1.27)
            (xy 0 -2.54)
            (xy -1.27 -1.27)
            (xy 0 -1.27)
          )
          (stroke (width 0) (type default))
          (fill (type none))
        )
      )
      (symbol "GND_1_1"
        (pin power_in line (at 0 0 270) (length 0) hide
          (name "GND" (effects (font (size 1.27 1.27))))
          (number "1" (effects (font (size 1.27 1.27))))
        )
      )
    )
    (symbol "power:PWR_FLAG" (power) (pin_numbers hide) (pin_names (offset 0) hide) (in_bom yes) (on_board yes)
      (property "Reference" "#FLG" (at 0 1.905 0)
        (effects (font (size 1.27 1.27)) hide)
      )
      (property "Value" "PWR_FLAG" (at 0 3.81 0)
        (effects (font (size 1.27 1.27)))
      )
      (property "Footprint" "" (at 0 0 0)
        (effects (font (size 1.27 1.27)) hide)
      )
      (property "Datasheet" "~" (at 0 0 0)
        (effects (font (size 1.27 1.27)) hide)
      )
      (property "ki_keywords" "flag power" (at 0 0 0)
        (effects (font (size 1.27 1.27)) hide)
      )
      (property "ki_description" "Special symbol for telling ERC where power comes from" (at 0 0 0)
        (effects (font (size 1.27 1.27)) hide)
      )
      (symbol "PWR_FLAG_0_0"
        (pin power_out line (at 0 0 90) (length 0)
          (name "pwr" (effects (font (size 1.27 1.27))))
          (number "1" (effects (font (size 1.27 1.27))))
        )
      )
      (symbol "PWR_FLAG_0_1"
        (polyline
          (pts
            (xy 0 0)
            (xy 0 1.27)
            (xy -1.016 1.905)
            (xy 0 2.54)
            (xy 1.016 1.905)
            (xy 0 1.27)
          )
          (stroke (width 0) (type default))
          (fill (type none))
        )
      )
    )
  )

  (junction (at 242.57 35.56) (diameter 0) (color 0 0 0 0)
    (uuid 452e4b80-6399-4442-b411-8be6d9aac16a)
  )
  (junction (at 228.6 52.07) (diameter 0) (color 0 0 0 0)
    (uuid 5661d576-76ae-490d-a526-0304601593f0)
  )
  (junction (at 242.57 49.53) (diameter 0) (color 0 0 0 0)
    (uuid 7c5cdb29-05a9-422a-b642-27270f8667ba)
  )
  (junction (at 242.57 113.03) (diameter 0) (color 0 0 0 0)
    (uuid 915ae39b-2d58-45cc-9e7d-8c4350b793f6)
  )
  (junction (at 228.6 35.56) (diameter 0) (color 0 0 0 0)
    (uuid af46ca98-bae1-4607-b22e-4ef15c3bf9f0)
  )

  (no_connect (at 236.22 54.61) (uuid 95167567-2390-40c9-bb32-5055dc61fa6d))

  (polyline (pts (xy 276.86 71.12) (xy 276.86 92.71))
    (stroke (width 0) (type default))
    (uuid 04c3493a-bf84-441e-bd80-c48b2080a9e9)
  )

  (wire (pts (xy 167.64 77.47) (xy 173.99 77.47))
    (stroke (width 0) (type default))
    (uuid 0d800359-a00f-499a-a42d-cdd2db20b8cf)
  )
  (polyline (pts (xy 120.65 22.86) (xy 127 22.86))
    (stroke (width 0) (type default))
    (uuid 0e283c63-a244-4467-95ab-3024662bca53)
  )

  (wire (pts (xy 52.07 81.28) (xy 57.15 81.28))
    (stroke (width 0) (type default))
    (uuid 0ee93fab-78f4-4ec5-8f7b-e47040dad8a7)
  )
  (polyline (pts (xy 275.59 92.71) (xy 212.09 92.71))
    (stroke (width 0) (type default))
    (uuid 181e5f2a-c809-43ee-a8dc-2a41a6bff2a8)
  )

  (wire (pts (xy 251.46 102.87) (xy 255.27 102.87))
    (stroke (width 0) (type default))
    (uuid 1a5fc257-b7c4-4a7f-ab75-86f0d4e751ad)
  )
  (wire (pts (xy 242.57 46.99) (xy 242.57 49.53))
    (stroke (width 0) (type default))
    (uuid 1c992484-e4af-41f9-a801-ba3d9c1de750)
  )
  (wire (pts (xy 251.46 104.14) (xy 251.46 102.87))
    (stroke (width 0) (type default))
    (uuid 1eef402c-7379-4e39-bc2d-53c7a8fe133c)
  )
  (wire (pts (xy 157.48 130.81) (xy 157.48 133.35))
    (stroke (width 0) (type default))
    (uuid 210c47b2-1a75-49ba-a846-4c46d57d8344)
  )
  (polyline (pts (xy 15.24 114.3) (xy 15.24 22.86))
    (stroke (width 0) (type default))
    (uuid 29b88b40-356f-4bc2-a4ef-0f1ba189b8b1)
  )
  (polyline (pts (xy 135.89 24.13) (xy 135.89 114.3))
    (stroke (width 0) (type default))
    (uuid 2b23f002-508c-40da-b341-24623e243f95)
  )

  (wire (pts (xy 54.61 57.15) (xy 57.15 57.15))
    (stroke (width 0) (type default))
    (uuid 2d09bcc8-155f-4786-bcf2-17af03f7bf14)
  )
  (wire (pts (xy 167.64 55.88) (xy 173.99 55.88))
    (stroke (width 0) (type default))
    (uuid 3467f2ad-b4b2-473b-a5a3-fd32bd61cd9d)
  )
  (wire (pts (xy 255.27 110.49) (xy 256.54 110.49))
    (stroke (width 0) (type default))
    (uuid 3f49fb24-33eb-4b30-af71-cff1a5586bb1)
  )
  (wire (pts (xy 52.07 78.74) (xy 57.15 78.74))
    (stroke (width 0) (type default))
    (uuid 40d4b19d-09f1-4121-a397-cff80ca00947)
  )
  (wire (pts (xy 52.07 73.66) (xy 57.15 73.66))
    (stroke (width 0) (type default))
    (uuid 42e4ca26-27d9-4051-a989-22571ec49565)
  )
  (polyline (pts (xy 214.63 71.12) (xy 276.86 71.12))
    (stroke (width 0) (type default))
    (uuid 55abbed2-e4fb-4cff-996f-d2de60f8c2e1)
  )
  (polyline (pts (xy 212.09 92.71) (xy 212.09 73.66))
    (stroke (width 0) (type default))
    (uuid 5667c75d-ab1f-4fef-b6b1-a49f256b179e)
  )

  (wire (pts (xy 167.64 59.69) (xy 173.99 59.69))
    (stroke (width 0) (type default))
    (uuid 59c165d3-7dc3-418f-a5c2-069cf70ce759)
  )
  (polyline (pts (xy 276.86 66.04) (xy 212.09 66.04))
    (stroke (width 0) (type default))
    (uuid 5a45816b-dd56-4053-9a9e-d5af6a22bccb)
  )

  (wire (pts (xy 168.91 39.37) (xy 175.26 39.37))
    (stroke (width 0) (type default))
    (uuid 60b716a2-cf12-49a3-96be-bc2dc150cef4)
  )
  (polyline (pts (xy 276.86 64.77) (xy 276.86 66.04))
    (stroke (width 0) (type default))
    (uuid 6135eda0-e083-41de-85c5-0c06e8711f5f)
  )
  (polyline (pts (xy 142.24 22.86) (xy 207.01 22.86))
    (stroke (width 0) (type default))
    (uuid 6172bdf4-cda0-4390-b550-1bacd99169bc)
  )
  (polyline (pts (xy 212.09 73.66) (xy 212.09 71.12))
    (stroke (width 0) (type default))
    (uuid 62eb1713-2019-41d9-bcdf-db4f57cc58ca)
  )

  (wire (pts (xy 242.57 39.37) (xy 242.57 35.56))
    (stroke (width 0) (type default))
    (uuid 666cd63f-72ac-4a66-8f54-b9b4824c65b5)
  )
  (polyline (pts (xy 207.01 22.86) (xy 207.01 92.71))
    (stroke (width 0) (type default))
    (uuid 67e3fc77-0612-4d2f-9930-48ae89dc9380)
  )

  (wire (pts (xy 54.61 53.34) (xy 57.15 53.34))
    (stroke (width 0) (type default))
    (uuid 6a70320c-2f73-4648-b24e-06e94d386e76)
  )
  (wire (pts (xy 44.45 125.73) (xy 45.72 125.73))
    (stroke (width 0) (type default))
    (uuid 70501cae-9ed5-4f1d-95c7-63694f407a3f)
  )
  (wire (pts (xy 242.57 110.49) (xy 242.57 113.03))
    (stroke (width 0) (type default))
    (uuid 7254ebc8-5801-4563-9847-29dffddf7875)
  )
  (wire (pts (xy 228.6 31.75) (xy 228.6 35.56))
    (stroke (width 0) (type default))
    (uuid 7e4d25ab-b6a7-4a5b-b0f7-95f45e3c99c1)
  )
  (wire (pts (xy 148.59 125.73) (xy 152.4 125.73))
    (stroke (width 0) (type default))
    (uuid 7eb66a83-fb84-4d6b-a4d1-0e71c7d752da)
  )
  (wire (pts (xy 52.07 71.12) (xy 57.15 71.12))
    (stroke (width 0) (type default))
    (uuid 82dba9e2-f12d-4adc-82fc-13fcadeab086)
  )
  (polyline (pts (xy 135.89 22.86) (xy 135.89 24.13))
    (stroke (width 0) (type default))
    (uuid 83504942-8b84-429f-b2d9-4543d3f21f34)
  )

  (wire (pts (xy 168.91 35.56) (xy 175.26 35.56))
    (stroke (width 0) (type default))
    (uuid 83d0505f-7a91-4bac-a301-9f89a4f6ea0e)
  )
  (wire (pts (xy 236.22 54.61) (xy 246.38 54.61))
    (stroke (width 0) (type default))
    (uuid 85e1134a-5d9f-4def-b0d4-eaa91889ee00)
  )
  (wire (pts (xy 242.57 35.56) (xy 254 35.56))
    (stroke (width 0) (type default))
    (uuid 88614d02-b63f-4142-b0f4-16b9c388d544)
  )
  (wire (pts (xy 52.07 62.23) (xy 57.15 62.23))
    (stroke (width 0) (type default))
    (uuid 8938cf8d-22b8-4f46-b5ba-918e3ef6e804)
  )
  (wire (pts (xy 165.1 184.15) (xy 165.1 189.23))
    (stroke (width 0) (type default))
    (uuid 8c3ef136-9710-471f-8992-7e118933acc5)
  )
  (wire (pts (xy 102.87 130.81) (xy 102.87 133.35))
    (stroke (width 0) (type default))
    (uuid 8dcf1e6e-04a2-4cc7-a579-964eabd0c2b3)
  )
  (polyline (pts (xy 15.24 22.86) (xy 120.65 22.86))
    (stroke (width 0) (type default))
    (uuid 915da1c5-267c-4b5d-969b-bb2aefbf98ff)
  )

  (wire (pts (xy 242.57 49.53) (xy 246.38 49.53))
    (stroke (width 0) (type default))
    (uuid 94a184e9-d2c4-48d9-984f-54a102647efc)
  )
  (wire (pts (xy 233.68 113.03) (xy 242.57 113.03))
    (stroke (width 0) (type default))
    (uuid 954ca14a-4e17-4fc4-a75b-524002da8827)
  )
  (polyline (pts (xy 212.09 71.12) (xy 214.63 71.12))
    (stroke (width 0) (type default))
    (uuid 9687647b-1bc6-4e1b-a62d-7cebcc3ecd02)
  )

  (wire (pts (xy 50.8 130.81) (xy 50.8 133.35))
    (stroke (width 0) (type default))
    (uuid 96e42cf2-5f97-4f0c-8ff6-c1ca13e50c3c)
  )
  (wire (pts (xy 228.6 35.56) (xy 242.57 35.56))
    (stroke (width 0) (type default))
    (uuid 96e8936e-1286-45f4-9762-78f9c8037954)
  )
  (wire (pts (xy 254 38.1) (xy 254 40.64))
    (stroke (width 0) (type default))
    (uuid 9ef08353-eb9f-4a3f-9b7a-78757233dfef)
  )
  (wire (pts (xy 232.41 81.28) (xy 234.95 81.28))
    (stroke (width 0) (type default))
    (uuid a02a2599-18ea-4956-b8dd-392d0336b694)
  )
  (wire (pts (xy 241.3 49.53) (xy 242.57 49.53))
    (stroke (width 0) (type default))
    (uuid a797fa94-20d8-4e44-aabc-6455dac9721d)
  )
  (wire (pts (xy 227.33 52.07) (xy 228.6 52.07))
    (stroke (width 0) (type default))
    (uuid b03faa19-a709-471d-95ac-5d204da5652c)
  )
  (wire (pts (xy 93.98 52.07) (xy 96.52 52.07))
    (stroke (width 0) (type default))
    (uuid b31db800-085e-4a6e-9241-4eda0fe18003)
  )
  (wire (pts (xy 255.27 102.87) (xy 255.27 110.49))
    (stroke (width 0) (type default))
    (uuid b55ed3ca-fdb6-48c0-8036-fe887b7e5ffa)
  )
  (wire (pts (xy 228.6 52.07) (xy 246.38 52.07))
    (stroke (width 0) (type default))
    (uuid b6b632a8-4bc2-494f-a5bf-6f8e681e8fac)
  )
  (polyline (pts (xy 142.24 92.71) (xy 142.24 22.86))
    (stroke (width 0) (type default))
    (uuid ba60035c-118a-4937-9a98-524e1df91eb1)
  )

  (wire (pts (xy 233.68 110.49) (xy 233.68 113.03))
    (stroke (width 0) (type default))
    (uuid bc14d12f-6e79-42c1-be1e-20af42e78609)
  )
  (polyline (pts (xy 135.89 114.3) (xy 15.24 114.3))
    (stroke (width 0) (type default))
    (uuid bdd8df74-dc30-45e5-bfdb-1c058a271fe5)
  )

  (wire (pts (xy 242.57 113.03) (xy 256.54 113.03))
    (stroke (width 0) (type default))
    (uuid c7d2ea76-5b4a-47a5-889a-a862cbc7586e)
  )
  (polyline (pts (xy 212.09 22.86) (xy 276.86 22.86))
    (stroke (width 0) (type default))
    (uuid d11ea456-76dd-4cdb-8bb5-1e114015b7b4)
  )
  (polyline (pts (xy 276.86 22.86) (xy 276.86 64.77))
    (stroke (width 0) (type default))
    (uuid d1f05d84-bdee-4516-a170-26876636e8fc)
  )
  (polyline (pts (xy 275.59 92.71) (xy 276.86 92.71))
    (stroke (width 0) (type default))
    (uuid d4c6e481-8e57-464b-b613-82950465a34f)
  )

  (wire (pts (xy 167.64 81.28) (xy 173.99 81.28))
    (stroke (width 0) (type default))
    (uuid d5757cac-1e96-4017-be8c-8811c22f0237)
  )
  (wire (pts (xy 96.52 125.73) (xy 97.79 125.73))
    (stroke (width 0) (type default))
    (uuid d5d8b664-01f4-4299-a7da-660df235bec0)
  )
  (wire (pts (xy 57.15 64.77) (xy 52.07 64.77))
    (stroke (width 0) (type default))
    (uuid d9f19b55-a44f-46b1-9e70-42cf6179756a)
  )
  (polyline (pts (xy 212.09 66.04) (xy 212.09 22.86))
    (stroke (width 0) (type default))
    (uuid da54af6c-4653-4512-adec-58a37297eba9)
  )

  (wire (pts (xy 54.61 49.53) (xy 57.15 49.53))
    (stroke (width 0) (type default))
    (uuid df28a2bb-2306-4009-9a30-cbec9c30f63e)
  )
  (polyline (pts (xy 132.08 22.86) (xy 135.89 22.86))
    (stroke (width 0) (type default))
    (uuid e4f02702-864a-45c4-b9e2-338fcced3195)
  )
  (polyline (pts (xy 135.89 22.86) (xy 135.89 24.13))
    (stroke (width 0) (type default))
    (uuid e52dbe46-3f9d-4401-ba9c-64fbe8929b12)
  )

  (wire (pts (xy 228.6 39.37) (xy 228.6 35.56))
    (stroke (width 0) (type default))
    (uuid ed9aa3b3-b2dd-4c32-8103-d0dced619405)
  )
  (wire (pts (xy 228.6 46.99) (xy 228.6 52.07))
    (stroke (width 0) (type default))
    (uuid f36da1eb-4154-44ad-adec-86ccf93581e6)
  )
  (polyline (pts (xy 207.01 92.71) (xy 142.24 92.71))
    (stroke (width 0) (type default))
    (uuid f4793d8b-904a-4e79-82c0-0f6b48119036)
  )

  (wire (pts (xy 93.98 55.88) (xy 96.52 55.88))
    (stroke (width 0) (type default))
    (uuid f83774f8-f38f-4ac2-a5d4-2b595cbfe92b)
  )
  (polyline (pts (xy 127 22.86) (xy 132.08 22.86))
    (stroke (width 0) (type default))
    (uuid f85267cc-f154-4d54-bc17-d5ecba23cdca)
  )

  (rectangle (start 219.71 99.06) (end 276.86 127)
    (stroke (width 0) (type default))
    (fill (type none))
    (uuid 2f331850-cdd0-49a9-87be-18b56024e0b7)
  )
  (rectangle (start 15.24 119.38) (end 182.88 143.51)
    (stroke (width 0) (type default))
    (fill (type none))
    (uuid cd989bb2-273a-4e3f-a154-f6c2d98fefce)
  )

  (text "48VDC Power Supply" (at 223.52 125.73 0)
    (effects (font (size 1.27 1.27)) (justify left bottom))
    (uuid 828e3d46-915b-4917-8a82-963afcf8a6ab)
  )
  (text "H-bridges and Current Sensors\n" (at 144.78 91.44 0)
    (effects (font (size 1.27 1.27)) (justify left bottom))
    (uuid 9616685f-8639-458e-b6be-096896a61706)
  )
  (text "I2C magnetmeter connection\n" (at 215.9 64.77 0)
    (effects (font (size 1.27 1.27)) (justify left bottom))
    (uuid bc49f81b-71ea-4485-b298-a7d61da715e2)
  )
  (text "NUCLEO-64\n" (at 22.86 113.03 0)
    (effects (font (size 1.27 1.27)) (justify left bottom))
    (uuid dcfa1542-124d-42d0-b0d4-37286b80fd17)
  )
  (text "Button Connections" (at 213.36 91.44 0)
    (effects (font (size 1.27 1.27)) (justify left bottom))
    (uuid eb5c3052-3710-48e3-b6db-eba5e6a3f04f)
  )

  (global_label "CURRENT_SESOR_OUT_3" (shape input) (at 54.61 57.15 180) (fields_autoplaced)
    (effects (font (size 1.27 1.27)) (justify right))
    (uuid 036006b9-8daa-46a9-849e-90486a3ee5d3)
    (property "Intersheetrefs" "${INTERSHEET_REFS}" (at 29.2072 57.15 0)
      (effects (font (size 1.27 1.27)) (justify right) hide)
    )
  )
  (global_label "IN1_2" (shape input) (at 167.64 77.47 180) (fields_autoplaced)
    (effects (font (size 1.27 1.27)) (justify right))
    (uuid 0824092e-3770-46dc-aca5-f13289e87479)
    (property "Intersheetrefs" "${INTERSHEET_REFS}" (at 159.4123 77.47 0)
      (effects (font (size 1.27 1.27)) (justify right) hide)
    )
  )
  (global_label "IN2_1" (shape input) (at 167.64 59.69 180) (fields_autoplaced)
    (effects (font (size 1.27 1.27)) (justify right))
    (uuid 083f836f-fdb0-4ae9-89bd-017716a453e7)
    (property "Intersheetrefs" "${INTERSHEET_REFS}" (at 159.4123 59.69 0)
      (effects (font (size 1.27 1.27)) (justify right) hide)
    )
  )
  (global_label "IN1_1" (shape output) (at 52.07 71.12 180) (fields_autoplaced)
    (effects (font (size 1.27 1.27)) (justify right))
    (uuid 0942f11b-e8f2-443f-97c9-54a4f71c689b)
    (property "Intersheetrefs" "${INTERSHEET_REFS}" (at 43.8423 71.12 0)
      (effects (font (size 1.27 1.27)) (justify right) hide)
    )
  )
  (global_label "IN1_0" (shape input) (at 168.91 35.56 180) (fields_autoplaced)
    (effects (font (size 1.27 1.27)) (justify right))
    (uuid 0bc3c55a-522f-42f9-8073-695ff373832a)
    (property "Intersheetrefs" "${INTERSHEET_REFS}" (at 160.6823 35.56 0)
      (effects (font (size 1.27 1.27)) (justify right) hide)
    )
  )
  (global_label "CURRENT_SESOR_OUT_3" (shape input) (at 44.45 125.73 180) (fields_autoplaced)
    (effects (font (size 1.27 1.27)) (justify right))
    (uuid 118dd8b0-e3bc-43bb-82c5-5b62ea998bc9)
    (property "Intersheetrefs" "${INTERSHEET_REFS}" (at 19.0472 125.73 0)
      (effects (font (size 1.27 1.27)) (justify right) hide)
    )
  )
  (global_label "ON{slash}OFF SYSTEM" (shape input) (at 232.41 81.28 180) (fields_autoplaced)
    (effects (font (size 1.27 1.27)) (justify right))
    (uuid 14ac6f6c-1a96-439c-ad8e-37f73c4994ac)
    (property "Intersheetrefs" "${INTERSHEET_REFS}" (at 213.9618 81.28 0)
      (effects (font (size 1.27 1.27)) (justify right) hide)
    )
  )
  (global_label "IN2_0" (shape output) (at 52.07 78.74 180) (fields_autoplaced)
    (effects (font (size 1.27 1.27)) (justify right))
    (uuid 315cd1f1-2794-40c3-b269-d3fd2cd906eb)
    (property "Intersheetrefs" "${INTERSHEET_REFS}" (at 43.8423 78.74 0)
      (effects (font (size 1.27 1.27)) (justify right) hide)
    )
  )
  (global_label "I2C1_SCL" (shape input) (at 52.07 64.77 180) (fields_autoplaced)
    (effects (font (size 1.27 1.27)) (justify right))
    (uuid 4b782837-2d64-4204-846a-b0f65f3a7ca2)
    (property "Intersheetrefs" "${INTERSHEET_REFS}" (at 40.3952 64.77 0)
      (effects (font (size 1.27 1.27)) (justify right) hide)
    )
  )
  (global_label "CURRENT_SESOR_OUT_1" (shape input) (at 54.61 49.53 180) (fields_autoplaced)
    (effects (font (size 1.27 1.27)) (justify right))
    (uuid 61a521e1-5531-4fd2-a37c-2de7249aef4f)
    (property "Intersheetrefs" "${INTERSHEET_REFS}" (at 29.2072 49.53 0)
      (effects (font (size 1.27 1.27)) (justify right) hide)
    )
  )
  (global_label "IN1_1" (shape input) (at 167.64 55.88 180) (fields_autoplaced)
    (effects (font (size 1.27 1.27)) (justify right))
    (uuid 677e86ce-3e0b-4914-8bab-06083b7278c3)
    (property "Intersheetrefs" "${INTERSHEET_REFS}" (at 159.4123 55.88 0)
      (effects (font (size 1.27 1.27)) (justify right) hide)
    )
  )
  (global_label "CURRENT_SESOR_OUT_2" (shape input) (at 96.52 125.73 180) (fields_autoplaced)
    (effects (font (size 1.27 1.27)) (justify right))
    (uuid 7c6b63e1-42df-4537-a30a-85388ced5c96)
    (property "Intersheetrefs" "${INTERSHEET_REFS}" (at 71.1172 125.73 0)
      (effects (font (size 1.27 1.27)) (justify right) hide)
    )
  )
  (global_label "I2C1_SCL" (shape output) (at 241.3 49.53 180) (fields_autoplaced)
    (effects (font (size 1.27 1.27)) (justify right))
    (uuid 862a66fb-53f6-4922-8e89-2f8d55b96fe9)
    (property "Intersheetrefs" "${INTERSHEET_REFS}" (at 229.6252 49.53 0)
      (effects (font (size 1.27 1.27)) (justify right) hide)
    )
  )
  (global_label "IN2_0" (shape input) (at 168.91 39.37 180) (fields_autoplaced)
    (effects (font (size 1.27 1.27)) (justify right))
    (uuid 8885aea9-57d0-441f-b202-c30a0a91c6fe)
    (property "Intersheetrefs" "${INTERSHEET_REFS}" (at 160.6823 39.37 0)
      (effects (font (size 1.27 1.27)) (justify right) hide)
    )
  )
  (global_label "I2C1_SDA" (shape input) (at 52.07 62.23 180) (fields_autoplaced)
    (effects (font (size 1.27 1.27)) (justify right))
    (uuid 8eed491f-813e-462e-8f92-7405f9e3c29e)
    (property "Intersheetrefs" "${INTERSHEET_REFS}" (at 40.3347 62.23 0)
      (effects (font (size 1.27 1.27)) (justify right) hide)
    )
  )
  (global_label "IN1_0" (shape output) (at 52.07 73.66 180) (fields_autoplaced)
    (effects (font (size 1.27 1.27)) (justify right))
    (uuid 9cb63c3e-8025-4865-b259-49a997d5cc9b)
    (property "Intersheetrefs" "${INTERSHEET_REFS}" (at 43.8423 73.66 0)
      (effects (font (size 1.27 1.27)) (justify right) hide)
    )
  )
  (global_label "I2C1_SDA" (shape output) (at 227.33 52.07 180) (fields_autoplaced)
    (effects (font (size 1.27 1.27)) (justify right))
    (uuid ad5780fc-9c49-4fe7-9d25-d88e45634864)
    (property "Intersheetrefs" "${INTERSHEET_REFS}" (at 215.5947 52.07 0)
      (effects (font (size 1.27 1.27)) (justify right) hide)
    )
  )
  (global_label "IN2_2" (shape output) (at 96.52 55.88 0) (fields_autoplaced)
    (effects (font (size 1.27 1.27)) (justify left))
    (uuid b01c6ac8-bfa4-469c-96d6-3a3158e55d23)
    (property "Intersheetrefs" "${INTERSHEET_REFS}" (at 104.7477 55.88 0)
      (effects (font (size 1.27 1.27)) (justify left) hide)
    )
  )
  (global_label "IN2_2" (shape input) (at 167.64 81.28 180) (fields_autoplaced)
    (effects (font (size 1.27 1.27)) (justify right))
    (uuid dfea6816-6f1e-41f8-b62f-ca674e8d0634)
    (property "Intersheetrefs" "${INTERSHEET_REFS}" (at 159.4123 81.28 0)
      (effects (font (size 1.27 1.27)) (justify right) hide)
    )
  )
  (global_label "CURRENT_SESOR_OUT_2" (shape input) (at 54.61 53.34 180) (fields_autoplaced)
    (effects (font (size 1.27 1.27)) (justify right))
    (uuid e944993f-e372-48bd-8de8-8460de695226)
    (property "Intersheetrefs" "${INTERSHEET_REFS}" (at 29.2072 53.34 0)
      (effects (font (size 1.27 1.27)) (justify right) hide)
    )
  )
  (global_label "CURRENT_SESOR_OUT_1" (shape input) (at 148.59 125.73 180) (fields_autoplaced)
    (effects (font (size 1.27 1.27)) (justify right))
    (uuid edf90d96-313f-465b-bf08-2b07624cef21)
    (property "Intersheetrefs" "${INTERSHEET_REFS}" (at 123.1872 125.73 0)
      (effects (font (size 1.27 1.27)) (justify right) hide)
    )
  )
  (global_label "IN1_2" (shape output) (at 96.52 52.07 0) (fields_autoplaced)
    (effects (font (size 1.27 1.27)) (justify left))
    (uuid fbdd1ee1-17f2-4d42-913b-53330162f96d)
    (property "Intersheetrefs" "${INTERSHEET_REFS}" (at 104.7477 52.07 0)
      (effects (font (size 1.27 1.27)) (justify left) hide)
    )
  )
  (global_label "IN2_1" (shape output) (at 52.07 81.28 180) (fields_autoplaced)
    (effects (font (size 1.27 1.27)) (justify right))
    (uuid fef76b6b-2301-41a6-bdc9-f298c9546786)
    (property "Intersheetrefs" "${INTERSHEET_REFS}" (at 43.8423 81.28 0)
      (effects (font (size 1.27 1.27)) (justify right) hide)
    )
  )

  (symbol (lib_id "power:GND") (at 102.87 133.35 0) (unit 1)
    (in_bom yes) (on_board yes) (dnp no) (fields_autoplaced)
    (uuid 01a03b74-7f76-4d21-b0a7-ba6ed0b38365)
    (property "Reference" "#PWR05" (at 102.87 139.7 0)
      (effects (font (size 1.27 1.27)) hide)
    )
    (property "Value" "GND" (at 102.87 138.43 0)
      (effects (font (size 1.27 1.27)))
    )
    (property "Footprint" "" (at 102.87 133.35 0)
      (effects (font (size 1.27 1.27)) hide)
    )
    (property "Datasheet" "" (at 102.87 133.35 0)
      (effects (font (size 1.27 1.27)) hide)
    )
    (pin "1" (uuid 048bda4f-7274-48f8-a5d9-69e695f4f027))
    (instances
      (project "Helmholtz-Cage-PCB"
        (path "/d9aaf895-1acf-4d4a-8c6d-173b9df47c18"
          (reference "#PWR05") (unit 1)
        )
        (path "/d9aaf895-1acf-4d4a-8c6d-173b9df47c18/b33baa5a-bae5-48bd-8105-ba99a8d4760e"
          (reference "#PWR01") (unit 1)
        )
        (path "/d9aaf895-1acf-4d4a-8c6d-173b9df47c18/807fbcf0-e937-4278-ae9b-91465801146a"
          (reference "#PWR05") (unit 1)
        )
        (path "/d9aaf895-1acf-4d4a-8c6d-173b9df47c18/45804b70-aff4-47bf-b1f3-3d0541769f5c"
          (reference "#PWR06") (unit 1)
        )
      )
    )
  )

  (symbol (lib_id "power:+48V") (at 242.57 110.49 0) (unit 1)
    (in_bom yes) (on_board yes) (dnp no) (fields_autoplaced)
    (uuid 248cb34d-746b-40d5-a279-260765510a15)
    (property "Reference" "#PWR025" (at 242.57 114.3 0)
      (effects (font (size 1.27 1.27)) hide)
    )
    (property "Value" "+48V" (at 242.57 105.41 0)
      (effects (font (size 1.27 1.27)))
    )
    (property "Footprint" "" (at 242.57 110.49 0)
      (effects (font (size 1.27 1.27)) hide)
    )
    (property "Datasheet" "" (at 242.57 110.49 0)
      (effects (font (size 1.27 1.27)) hide)
    )
    (pin "1" (uuid 980d7363-ab52-4e15-b387-d5fbfd65e576))
    (instances
      (project "Helmholtz-Cage-PCB"
        (path "/d9aaf895-1acf-4d4a-8c6d-173b9df47c18/fc8e43cb-a968-4afb-924c-0f97813ab19f"
          (reference "#PWR025") (unit 1)
        )
        (path "/d9aaf895-1acf-4d4a-8c6d-173b9df47c18"
          (reference "#PWR017") (unit 1)
        )
      )
    )
  )

  (symbol (lib_id "Connector_Generic:Conn_01x03") (at 251.46 52.07 0) (unit 1)
    (in_bom yes) (on_board yes) (dnp no) (fields_autoplaced)
    (uuid 40510f29-4e3c-4ffa-ba86-65849f2bf0fe)
    (property "Reference" "J2" (at 254 51.435 0)
      (effects (font (size 1.27 1.27)) (justify left))
    )
    (property "Value" "Conn_01x03" (at 254 53.975 0)
      (effects (font (size 1.27 1.27)) (justify left))
    )
    (property "Footprint" "Connector_JST:JST_XH_B3B-XH-A_1x03_P2.50mm_Vertical" (at 251.46 52.07 0)
      (effects (font (size 1.27 1.27)) hide)
    )
    (property "Datasheet" "~" (at 251.46 52.07 0)
      (effects (font (size 1.27 1.27)) hide)
    )
    (pin "1" (uuid 1b584322-ac1b-4e92-b601-92ff3ff78f9f))
    (pin "2" (uuid 192f6625-d7d9-436b-9339-0696761ecdff))
    (pin "3" (uuid db371ab9-804f-4dd9-a655-c68ee31d2299))
    (instances
      (project "Helmholtz-Cage-PCB"
        (path "/d9aaf895-1acf-4d4a-8c6d-173b9df47c18"
          (reference "J2") (unit 1)
        )
      )
    )
  )

  (symbol (lib_id "Connector:Conn_Coaxial") (at 102.87 125.73 0) (unit 1)
    (in_bom yes) (on_board yes) (dnp no) (fields_autoplaced)
    (uuid 4570a0f8-788c-4888-abcc-04a56f8901e4)
    (property "Reference" "J1" (at 106.68 124.7532 0)
      (effects (font (size 1.27 1.27)) (justify left))
    )
    (property "Value" "Conn_Coaxial" (at 106.68 127.2932 0)
      (effects (font (size 1.27 1.27)) (justify left))
    )
    (property "Footprint" "Connector_Coaxial:SMA_Amphenol_132134-10_Vertical" (at 102.87 125.73 0)
      (effects (font (size 1.27 1.27)) hide)
    )
    (property "Datasheet" " ~" (at 102.87 125.73 0)
      (effects (font (size 1.27 1.27)) hide)
    )
    (pin "1" (uuid 4d68fe48-3e23-4b38-8110-f78afd7259c0))
    (pin "2" (uuid 704a288a-6259-4f90-8264-01c126bd5406))
    (instances
      (project "Helmholtz-Cage-PCB"
        (path "/d9aaf895-1acf-4d4a-8c6d-173b9df47c18/b33baa5a-bae5-48bd-8105-ba99a8d4760e"
          (reference "J1") (unit 1)
        )
        (path "/d9aaf895-1acf-4d4a-8c6d-173b9df47c18/807fbcf0-e937-4278-ae9b-91465801146a"
          (reference "J8") (unit 1)
        )
        (path "/d9aaf895-1acf-4d4a-8c6d-173b9df47c18/45804b70-aff4-47bf-b1f3-3d0541769f5c"
          (reference "J10") (unit 1)
        )
        (path "/d9aaf895-1acf-4d4a-8c6d-173b9df47c18"
          (reference "J8") (unit 1)
        )
      )
    )
  )

  (symbol (lib_id "Device:R") (at 242.57 43.18 0) (unit 1)
    (in_bom yes) (on_board yes) (dnp no) (fields_autoplaced)
    (uuid 48ebd535-9a7d-4773-a197-c6e612a41865)
    (property "Reference" "R2" (at 245.11 42.545 0)
      (effects (font (size 1.27 1.27)) (justify left))
    )
    (property "Value" "4.7k" (at 245.11 45.085 0)
      (effects (font (size 1.27 1.27)) (justify left))
    )
    (property "Footprint" "Resistor_SMD:R_0603_1608Metric_Pad0.98x0.95mm_HandSolder" (at 240.792 43.18 90)
      (effects (font (size 1.27 1.27)) hide)
    )
    (property "Datasheet" "~" (at 242.57 43.18 0)
      (effects (font (size 1.27 1.27)) hide)
    )
    (property "PARTREV" " 71-CRCW06034K70FKEAH " (at 242.57 43.18 0)
      (effects (font (size 1.27 1.27)) hide)
    )
    (pin "1" (uuid 18db9bbb-78f2-488c-b26a-04e31ffd359d))
    (pin "2" (uuid 485e482b-dc1c-4bb6-a1d6-162789a8f38f))
    (instances
      (project "Helmholtz-Cage-PCB"
        (path "/d9aaf895-1acf-4d4a-8c6d-173b9df47c18"
          (reference "R2") (unit 1)
        )
      )
    )
  )

  (symbol (lib_id "power:GND") (at 157.48 133.35 0) (unit 1)
    (in_bom yes) (on_board yes) (dnp no) (fields_autoplaced)
    (uuid 745c6e49-7320-4e91-b61c-182797ef3cfd)
    (property "Reference" "#PWR01" (at 157.48 139.7 0)
      (effects (font (size 1.27 1.27)) hide)
    )
    (property "Value" "GND" (at 157.48 138.43 0)
      (effects (font (size 1.27 1.27)))
    )
    (property "Footprint" "" (at 157.48 133.35 0)
      (effects (font (size 1.27 1.27)) hide)
    )
    (property "Datasheet" "" (at 157.48 133.35 0)
      (effects (font (size 1.27 1.27)) hide)
    )
    (pin "1" (uuid 277206c3-c554-476a-8550-af602b915239))
    (instances
      (project "Helmholtz-Cage-PCB"
        (path "/d9aaf895-1acf-4d4a-8c6d-173b9df47c18"
          (reference "#PWR01") (unit 1)
        )
        (path "/d9aaf895-1acf-4d4a-8c6d-173b9df47c18/b33baa5a-bae5-48bd-8105-ba99a8d4760e"
          (reference "#PWR01") (unit 1)
        )
        (path "/d9aaf895-1acf-4d4a-8c6d-173b9df47c18/807fbcf0-e937-4278-ae9b-91465801146a"
          (reference "#PWR05") (unit 1)
        )
        (path "/d9aaf895-1acf-4d4a-8c6d-173b9df47c18/45804b70-aff4-47bf-b1f3-3d0541769f5c"
          (reference "#PWR06") (unit 1)
        )
      )
    )
  )

  (symbol (lib_id "Connector:Conn_Coaxial") (at 157.48 125.73 0) (unit 1)
    (in_bom yes) (on_board yes) (dnp no) (fields_autoplaced)
    (uuid 768ae103-80f3-487e-a459-ea084a64d1d2)
    (property "Reference" "J1" (at 161.29 124.7532 0)
      (effects (font (size 1.27 1.27)) (justify left))
    )
    (property "Value" "Conn_Coaxial" (at 161.29 127.2932 0)
      (effects (font (size 1.27 1.27)) (justify left))
    )
    (property "Footprint" "Connector_Coaxial:SMA_Amphenol_132134-10_Vertical" (at 157.48 125.73 0)
      (effects (font (size 1.27 1.27)) hide)
    )
    (property "Datasheet" " ~" (at 157.48 125.73 0)
      (effects (font (size 1.27 1.27)) hide)
    )
    (pin "1" (uuid 8781132e-247d-4fcd-a9d4-209f4dd64283))
    (pin "2" (uuid 085a9e80-0794-49ca-9468-ec5463975a0e))
    (instances
      (project "Helmholtz-Cage-PCB"
        (path "/d9aaf895-1acf-4d4a-8c6d-173b9df47c18/b33baa5a-bae5-48bd-8105-ba99a8d4760e"
          (reference "J1") (unit 1)
        )
        (path "/d9aaf895-1acf-4d4a-8c6d-173b9df47c18/807fbcf0-e937-4278-ae9b-91465801146a"
          (reference "J8") (unit 1)
        )
        (path "/d9aaf895-1acf-4d4a-8c6d-173b9df47c18/45804b70-aff4-47bf-b1f3-3d0541769f5c"
          (reference "J10") (unit 1)
        )
        (path "/d9aaf895-1acf-4d4a-8c6d-173b9df47c18"
          (reference "J1") (unit 1)
        )
      )
    )
  )

  (symbol (lib_id "Connector_Generic:Conn_01x02") (at 259.08 35.56 0) (unit 1)
    (in_bom yes) (on_board yes) (dnp no) (fields_autoplaced)
    (uuid 9049241c-974f-42be-8791-354ed522d2d4)
    (property "Reference" "J4" (at 261.62 36.195 0)
      (effects (font (size 1.27 1.27)) (justify left))
    )
    (property "Value" "Conn_01x02" (at 261.62 38.735 0)
      (effects (font (size 1.27 1.27)) (justify left))
    )
    (property "Footprint" "Connector_JST:JST_XH_B2B-XH-A_1x02_P2.50mm_Vertical" (at 259.08 35.56 0)
      (effects (font (size 1.27 1.27)) hide)
    )
    (property "Datasheet" "~" (at 259.08 35.56 0)
      (effects (font (size 1.27 1.27)) hide)
    )
    (pin "1" (uuid c2625960-99e9-4267-845e-a69822e5447e))
    (pin "2" (uuid bd7553a2-788d-496a-b54f-1e1e9ffb76e4))
    (instances
      (project "Helmholtz-Cage-PCB"
        (path "/d9aaf895-1acf-4d4a-8c6d-173b9df47c18"
          (reference "J4") (unit 1)
        )
      )
    )
  )

  (symbol (lib_id "power:GND") (at 254 40.64 0) (unit 1)
    (in_bom yes) (on_board yes) (dnp no) (fields_autoplaced)
    (uuid b09a7a79-0563-4b92-a85e-44c13807ff0c)
    (property "Reference" "#PWR010" (at 254 46.99 0)
      (effects (font (size 1.27 1.27)) hide)
    )
    (property "Value" "GND" (at 254 45.72 0)
      (effects (font (size 1.27 1.27)))
    )
    (property "Footprint" "" (at 254 40.64 0)
      (effects (font (size 1.27 1.27)) hide)
    )
    (property "Datasheet" "" (at 254 40.64 0)
      (effects (font (size 1.27 1.27)) hide)
    )
    (pin "1" (uuid 2175ce34-8451-4700-9ecf-41cc10051db6))
    (instances
      (project "Helmholtz-Cage-PCB"
        (path "/d9aaf895-1acf-4d4a-8c6d-173b9df47c18"
          (reference "#PWR010") (unit 1)
        )
        (path "/d9aaf895-1acf-4d4a-8c6d-173b9df47c18/b33baa5a-bae5-48bd-8105-ba99a8d4760e"
          (reference "#PWR05") (unit 1)
        )
        (path "/d9aaf895-1acf-4d4a-8c6d-173b9df47c18/807fbcf0-e937-4278-ae9b-91465801146a"
          (reference "#PWR010") (unit 1)
        )
        (path "/d9aaf895-1acf-4d4a-8c6d-173b9df47c18/45804b70-aff4-47bf-b1f3-3d0541769f5c"
          (reference "#PWR016") (unit 1)
        )
      )
    )
  )

  (symbol (lib_id "power:+3V3") (at 228.6 31.75 0) (unit 1)
    (in_bom yes) (on_board yes) (dnp no)
    (uuid c0e726de-8682-42b5-87ab-e5465586476e)
    (property "Reference" "#PWR07" (at 228.6 35.56 0)
      (effects (font (size 1.27 1.27)) hide)
    )
    (property "Value" "+3V3" (at 228.6 27.94 0)
      (effects (font (size 1.27 1.27)))
    )
    (property "Footprint" "" (at 228.6 31.75 0)
      (effects (font (size 1.27 1.27)) hide)
    )
    (property "Datasheet" "" (at 228.6 31.75 0)
      (effects (font (size 1.27 1.27)) hide)
    )
    (pin "1" (uuid 6bfae2b8-7535-4dc7-a291-0d9c24a8b876))
    (instances
      (project "Helmholtz-Cage-PCB"
        (path "/d9aaf895-1acf-4d4a-8c6d-173b9df47c18"
          (reference "#PWR07") (unit 1)
        )
      )
    )
  )

  (symbol (lib_id "Device:R") (at 228.6 43.18 0) (unit 1)
    (in_bom yes) (on_board yes) (dnp no) (fields_autoplaced)
    (uuid c5d199a1-0d1d-43b8-9c66-6d23741fe751)
    (property "Reference" "R1" (at 231.14 42.545 0)
      (effects (font (size 1.27 1.27)) (justify left))
    )
    (property "Value" "4.7k" (at 231.14 45.085 0)
      (effects (font (size 1.27 1.27)) (justify left))
    )
    (property "Footprint" "Resistor_SMD:R_0603_1608Metric_Pad0.98x0.95mm_HandSolder" (at 226.822 43.18 90)
      (effects (font (size 1.27 1.27)) hide)
    )
    (property "Datasheet" "~" (at 228.6 43.18 0)
      (effects (font (size 1.27 1.27)) hide)
    )
    (property "PARTREV" " 71-CRCW06034K70FKEAH " (at 228.6 43.18 0)
      (effects (font (size 1.27 1.27)) hide)
    )
    (pin "1" (uuid 61597b99-1ba0-41b2-8352-77d7bb10672e))
    (pin "2" (uuid c81fff3f-9ed3-4124-8564-bf3fee2c5ce5))
    (instances
      (project "Helmholtz-Cage-PCB"
        (path "/d9aaf895-1acf-4d4a-8c6d-173b9df47c18"
          (reference "R1") (unit 1)
        )
      )
    )
  )

  (symbol (lib_id "power:GND") (at 165.1 189.23 0) (unit 1)
    (in_bom yes) (on_board yes) (dnp no) (fields_autoplaced)
    (uuid cadb1aa2-f309-47cb-9c0c-2083dfd5b531)
    (property "Reference" "#PWR04" (at 165.1 195.58 0)
      (effects (font (size 1.27 1.27)) hide)
    )
    (property "Value" "GND" (at 165.1 194.31 0)
      (effects (font (size 1.27 1.27)))
    )
    (property "Footprint" "" (at 165.1 189.23 0)
      (effects (font (size 1.27 1.27)) hide)
    )
    (property "Datasheet" "" (at 165.1 189.23 0)
      (effects (font (size 1.27 1.27)) hide)
    )
    (pin "1" (uuid cbab5e7f-881b-4ac4-bb3d-a7c2b31bb013))
    (instances
      (project "Helmholtz-Cage-PCB"
        (path "/d9aaf895-1acf-4d4a-8c6d-173b9df47c18"
          (reference "#PWR04") (unit 1)
        )
        (path "/d9aaf895-1acf-4d4a-8c6d-173b9df47c18/b33baa5a-bae5-48bd-8105-ba99a8d4760e"
          (reference "#PWR05") (unit 1)
        )
        (path "/d9aaf895-1acf-4d4a-8c6d-173b9df47c18/807fbcf0-e937-4278-ae9b-91465801146a"
          (reference "#PWR010") (unit 1)
        )
        (path "/d9aaf895-1acf-4d4a-8c6d-173b9df47c18/45804b70-aff4-47bf-b1f3-3d0541769f5c"
          (reference "#PWR016") (unit 1)
        )
      )
    )
  )

  (symbol (lib_id "Connector:Screw_Terminal_01x02") (at 261.62 110.49 0) (unit 1)
    (in_bom yes) (on_board yes) (dnp no) (fields_autoplaced)
    (uuid d3c2c957-df17-441a-b100-abcc9d85a023)
    (property "Reference" "J3" (at 264.16 111.125 0)
      (effects (font (size 1.27 1.27)) (justify left))
    )
    (property "Value" "V_in_DRV" (at 264.16 113.665 0)
      (effects (font (size 1.27 1.27)) (justify left))
    )
    (property "Footprint" "TerminalBlock_Phoenix:TerminalBlock_Phoenix_MKDS-1,5-2_1x02_P5.00mm_Horizontal" (at 261.62 110.49 0)
      (effects (font (size 1.27 1.27)) hide)
    )
    (property "Datasheet" "~" (at 261.62 110.49 0)
      (effects (font (size 1.27 1.27)) hide)
    )
    (pin "1" (uuid a58338e8-ee98-4476-b958-3ecf75a5104e))
    (pin "2" (uuid 866cc9cc-b39d-4ec5-b8cd-24b7862f842f))
    (instances
      (project "Helmholtz-Cage-PCB"
        (path "/d9aaf895-1acf-4d4a-8c6d-173b9df47c18"
          (reference "J3") (unit 1)
        )
        (path "/d9aaf895-1acf-4d4a-8c6d-173b9df47c18/b33baa5a-bae5-48bd-8105-ba99a8d4760e"
          (reference "J1") (unit 1)
        )
        (path "/d9aaf895-1acf-4d4a-8c6d-173b9df47c18/807fbcf0-e937-4278-ae9b-91465801146a"
          (reference "J4") (unit 1)
        )
        (path "/d9aaf895-1acf-4d4a-8c6d-173b9df47c18/45804b70-aff4-47bf-b1f3-3d0541769f5c"
          (reference "J6") (unit 1)
        )
        (path "/d9aaf895-1acf-4d4a-8c6d-173b9df47c18/fc8e43cb-a968-4afb-924c-0f97813ab19f"
          (reference "J11") (unit 1)
        )
      )
    )
  )

  (symbol (lib_id "Connector:Conn_Coaxial") (at 50.8 125.73 0) (unit 1)
    (in_bom yes) (on_board yes) (dnp no) (fields_autoplaced)
    (uuid dbdd814f-db67-423e-b96b-2fd1b2822755)
    (property "Reference" "J1" (at 54.61 124.7532 0)
      (effects (font (size 1.27 1.27)) (justify left))
    )
    (property "Value" "Conn_Coaxial" (at 54.61 127.2932 0)
      (effects (font (size 1.27 1.27)) (justify left))
    )
    (property "Footprint" "Connector_Coaxial:SMA_Amphenol_132134-10_Vertical" (at 50.8 125.73 0)
      (effects (font (size 1.27 1.27)) hide)
    )
    (property "Datasheet" " ~" (at 50.8 125.73 0)
      (effects (font (size 1.27 1.27)) hide)
    )
    (pin "1" (uuid acb88374-8789-4d66-8219-33b5f7cf3660))
    (pin "2" (uuid ee48a30e-75ee-4533-95b1-36677f06a0f5))
    (instances
      (project "Helmholtz-Cage-PCB"
        (path "/d9aaf895-1acf-4d4a-8c6d-173b9df47c18/b33baa5a-bae5-48bd-8105-ba99a8d4760e"
          (reference "J1") (unit 1)
        )
        (path "/d9aaf895-1acf-4d4a-8c6d-173b9df47c18/807fbcf0-e937-4278-ae9b-91465801146a"
          (reference "J8") (unit 1)
        )
        (path "/d9aaf895-1acf-4d4a-8c6d-173b9df47c18/45804b70-aff4-47bf-b1f3-3d0541769f5c"
          (reference "J10") (unit 1)
        )
        (path "/d9aaf895-1acf-4d4a-8c6d-173b9df47c18"
          (reference "J10") (unit 1)
        )
      )
    )
  )

  (symbol (lib_id "power:GND") (at 251.46 104.14 0) (unit 1)
    (in_bom yes) (on_board yes) (dnp no) (fields_autoplaced)
    (uuid dcd458b6-ce0b-4918-abb3-599fdbd2feb9)
    (property "Reference" "#PWR09" (at 251.46 110.49 0)
      (effects (font (size 1.27 1.27)) hide)
    )
    (property "Value" "GND" (at 251.46 109.22 0)
      (effects (font (size 1.27 1.27)))
    )
    (property "Footprint" "" (at 251.46 104.14 0)
      (effects (font (size 1.27 1.27)) hide)
    )
    (property "Datasheet" "" (at 251.46 104.14 0)
      (effects (font (size 1.27 1.27)) hide)
    )
    (pin "1" (uuid 1e962c55-fdc6-4ba7-bf02-12666f05abc5))
    (instances
      (project "Helmholtz-Cage-PCB"
        (path "/d9aaf895-1acf-4d4a-8c6d-173b9df47c18"
          (reference "#PWR09") (unit 1)
        )
        (path "/d9aaf895-1acf-4d4a-8c6d-173b9df47c18/b33baa5a-bae5-48bd-8105-ba99a8d4760e"
          (reference "#PWR04") (unit 1)
        )
        (path "/d9aaf895-1acf-4d4a-8c6d-173b9df47c18/807fbcf0-e937-4278-ae9b-91465801146a"
          (reference "#PWR012") (unit 1)
        )
        (path "/d9aaf895-1acf-4d4a-8c6d-173b9df47c18/45804b70-aff4-47bf-b1f3-3d0541769f5c"
          (reference "#PWR018") (unit 1)
        )
        (path "/d9aaf895-1acf-4d4a-8c6d-173b9df47c18/fc8e43cb-a968-4afb-924c-0f97813ab19f"
          (reference "#PWR024") (unit 1)
        )
      )
    )
  )

  (symbol (lib_id "power:PWR_FLAG") (at 233.68 110.49 0) (unit 1)
    (in_bom yes) (on_board yes) (dnp no) (fields_autoplaced)
    (uuid dea8026a-49d0-4a82-86ca-c3a775dd47d6)
    (property "Reference" "#FLG02" (at 233.68 108.585 0)
      (effects (font (size 1.27 1.27)) hide)
    )
    (property "Value" "PWR_FLAG" (at 233.68 105.41 0)
      (effects (font (size 1.27 1.27)))
    )
    (property "Footprint" "" (at 233.68 110.49 0)
      (effects (font (size 1.27 1.27)) hide)
    )
    (property "Datasheet" "~" (at 233.68 110.49 0)
      (effects (font (size 1.27 1.27)) hide)
    )
    (pin "1" (uuid e7f71f5a-7db5-4054-902a-93cebfbb003b))
    (instances
      (project "Helmholtz-Cage-PCB"
        (path "/d9aaf895-1acf-4d4a-8c6d-173b9df47c18"
          (reference "#FLG02") (unit 1)
        )
        (path "/d9aaf895-1acf-4d4a-8c6d-173b9df47c18/fc8e43cb-a968-4afb-924c-0f97813ab19f"
          (reference "#FLG05") (unit 1)
        )
      )
    )
  )

  (symbol (lib_id "power:GND") (at 50.8 133.35 0) (unit 1)
    (in_bom yes) (on_board yes) (dnp no) (fields_autoplaced)
    (uuid f7cdd367-6c6a-4a94-b3f1-af496a9bdd3c)
    (property "Reference" "#PWR06" (at 50.8 139.7 0)
      (effects (font (size 1.27 1.27)) hide)
    )
    (property "Value" "GND" (at 50.8 138.43 0)
      (effects (font (size 1.27 1.27)))
    )
    (property "Footprint" "" (at 50.8 133.35 0)
      (effects (font (size 1.27 1.27)) hide)
    )
    (property "Datasheet" "" (at 50.8 133.35 0)
      (effects (font (size 1.27 1.27)) hide)
    )
    (pin "1" (uuid 53875356-e2b5-4ffd-a95b-65ce91db0faf))
    (instances
      (project "Helmholtz-Cage-PCB"
        (path "/d9aaf895-1acf-4d4a-8c6d-173b9df47c18"
          (reference "#PWR06") (unit 1)
        )
        (path "/d9aaf895-1acf-4d4a-8c6d-173b9df47c18/b33baa5a-bae5-48bd-8105-ba99a8d4760e"
          (reference "#PWR01") (unit 1)
        )
        (path "/d9aaf895-1acf-4d4a-8c6d-173b9df47c18/807fbcf0-e937-4278-ae9b-91465801146a"
          (reference "#PWR05") (unit 1)
        )
        (path "/d9aaf895-1acf-4d4a-8c6d-173b9df47c18/45804b70-aff4-47bf-b1f3-3d0541769f5c"
          (reference "#PWR06") (unit 1)
        )
      )
    )
  )

  (symbol (lib_id "power:PWR_FLAG") (at 165.1 184.15 0) (unit 1)
    (in_bom yes) (on_board yes) (dnp no) (fields_autoplaced)
    (uuid f8e22e6c-77dd-48a1-928d-f62ee5d6122a)
    (property "Reference" "#FLG03" (at 165.1 182.245 0)
      (effects (font (size 1.27 1.27)) hide)
    )
    (property "Value" "PWR_FLAG" (at 165.1 179.07 0)
      (effects (font (size 1.27 1.27)))
    )
    (property "Footprint" "" (at 165.1 184.15 0)
      (effects (font (size 1.27 1.27)) hide)
    )
    (property "Datasheet" "~" (at 165.1 184.15 0)
      (effects (font (size 1.27 1.27)) hide)
    )
    (pin "1" (uuid 2e69dfad-3202-4e28-923e-70214b8ca7e4))
    (instances
      (project "Helmholtz-Cage-PCB"
        (path "/d9aaf895-1acf-4d4a-8c6d-173b9df47c18"
          (reference "#FLG03") (unit 1)
        )
      )
    )
  )

  (sheet (at 173.99 71.12) (size 30.48 11.43) (fields_autoplaced)
    (stroke (width 0.1524) (type solid))
    (fill (color 0 0 0 0.0000))
    (uuid 45804b70-aff4-47bf-b1f3-3d0541769f5c)
    (property "Sheetname" "H-bridge2" (at 173.99 70.4084 0)
      (effects (font (size 1.27 1.27)) (justify left bottom))
    )
    (property "Sheetfile" "H-brige.kicad_sch" (at 173.99 83.1346 0)
      (effects (font (size 1.27 1.27)) (justify left top))
    )
    (pin "IN1" input (at 173.99 77.47 180)
      (effects (font (size 1.27 1.27)) (justify left))
      (uuid 479efaf6-4737-4077-9fb8-c43629451770)
    )
    (pin "IN2" input (at 173.99 81.28 180)
      (effects (font (size 1.27 1.27)) (justify left))
      (uuid fbc77ffe-a6ea-4d3b-a191-be550676a7d0)
    )
    (instances
      (project "Helmholtz-Cage-PCB"
        (path "/d9aaf895-1acf-4d4a-8c6d-173b9df47c18" (page "4"))
      )
    )
  )

  (sheet (at 173.99 49.53) (size 30.48 11.43) (fields_autoplaced)
    (stroke (width 0.1524) (type solid))
    (fill (color 0 0 0 0.0000))
    (uuid 807fbcf0-e937-4278-ae9b-91465801146a)
    (property "Sheetname" "H-bridge1" (at 173.99 48.8184 0)
      (effects (font (size 1.27 1.27)) (justify left bottom))
    )
    (property "Sheetfile" "H-brige.kicad_sch" (at 173.99 61.5446 0)
      (effects (font (size 1.27 1.27)) (justify left top))
    )
    (pin "IN1" input (at 173.99 55.88 180)
      (effects (font (size 1.27 1.27)) (justify left))
      (uuid e6083793-ed3e-4ab2-b36b-487e0c3e6eaf)
    )
    (pin "IN2" input (at 173.99 59.69 180)
      (effects (font (size 1.27 1.27)) (justify left))
      (uuid e2171fc3-93dc-4033-9a58-65f35346c067)
    )
    (instances
      (project "Helmholtz-Cage-PCB"
        (path "/d9aaf895-1acf-4d4a-8c6d-173b9df47c18" (page "3"))
      )
    )
  )

  (sheet (at 57.15 43.18) (size 36.83 48.26) (fields_autoplaced)
    (stroke (width 0.1524) (type solid))
    (fill (color 0 0 0 0.0000))
    (uuid ac7e1974-c82b-48a3-86a7-0f73e123bf5a)
    (property "Sheetname" "Nucleo" (at 57.15 42.4684 0)
      (effects (font (size 1.27 1.27)) (justify left bottom))
    )
    (property "Sheetfile" "Nucleo.kicad_sch" (at 57.15 92.0246 0)
      (effects (font (size 1.27 1.27)) (justify left top))
    )
    (pin "CURRENT_SESOR_OUT_1" input (at 57.15 49.53 180)
      (effects (font (size 1.27 1.27)) (justify left))
      (uuid b6ef2286-ad06-472c-8671-07f39e6b793b)
    )
    (pin "CURRENT_SESOR_OUT_2" input (at 57.15 53.34 180)
      (effects (font (size 1.27 1.27)) (justify left))
      (uuid 8cc9afb9-fb5f-4f1f-83f8-ec081fa27371)
    )
    (pin "CURRENT_SESOR_OUT_3" input (at 57.15 57.15 180)
      (effects (font (size 1.27 1.27)) (justify left))
      (uuid 6a567cbd-923d-41b1-8022-f0b2aa426878)
    )
    (pin "I2C1_SDA" input (at 57.15 62.23 180)
      (effects (font (size 1.27 1.27)) (justify left))
      (uuid 0de5bd65-a46a-4ede-816e-4bf4ce9d24e4)
    )
    (pin "I2C1_SCL" input (at 57.15 64.77 180)
      (effects (font (size 1.27 1.27)) (justify left))
      (uuid 42a0b093-d444-4a08-9f2e-3b652a2d5194)
    )
    (pin "IN1_1" input (at 57.15 71.12 180)
      (effects (font (size 1.27 1.27)) (justify left))
      (uuid 5bf566fc-1fa0-4451-9cfc-1b5cb505f31c)
    )
    (pin "IN1_0" input (at 57.15 73.66 180)
      (effects (font (size 1.27 1.27)) (justify left))
      (uuid 461edb33-01ca-49c6-b14c-7218201dce82)
    )
    (pin "IN2_0" input (at 57.15 78.74 180)
      (effects (font (size 1.27 1.27)) (justify left))
      (uuid 841fc2bc-725d-4c5d-8932-c73bbee0afe2)
    )
    (pin "IN2_1" input (at 57.15 81.28 180)
      (effects (font (size 1.27 1.27)) (justify left))
      (uuid b05e084b-e9f0-40aa-965b-7391e46321dc)
    )
    (pin "IN1_2" input (at 93.98 52.07 0)
      (effects (font (size 1.27 1.27)) (justify right))
      (uuid b8c4e316-1ba6-493a-b3ae-9a51586a5f5e)
    )
    (pin "IN2_2" input (at 93.98 55.88 0)
      (effects (font (size 1.27 1.27)) (justify right))
      (uuid 8d8e219d-ded6-43c8-99a4-92bcf9c1275a)
    )
    (instances
      (project "Control_Box"
        (path "/eaef1172-3351-417c-bfc4-74a598f141cb" (page "2"))
      )
      (project "Helmholtz-Cage-PCB"
        (path "/d9aaf895-1acf-4d4a-8c6d-173b9df47c18" (page "6"))
      )
    )
  )

  (sheet (at 175.26 29.21) (size 30.48 11.43) (fields_autoplaced)
    (stroke (width 0.1524) (type solid))
    (fill (color 0 0 0 0.0000))
    (uuid b33baa5a-bae5-48bd-8105-ba99a8d4760e)
    (property "Sheetname" "H-bridge" (at 175.26 28.4984 0)
      (effects (font (size 1.27 1.27)) (justify left bottom))
    )
    (property "Sheetfile" "H-brige.kicad_sch" (at 175.26 41.2246 0)
      (effects (font (size 1.27 1.27)) (justify left top))
    )
    (pin "IN1" input (at 175.26 35.56 180)
      (effects (font (size 1.27 1.27)) (justify left))
      (uuid 872dfe50-8e65-417a-b62a-c68e4643c3cb)
    )
    (pin "IN2" input (at 175.26 39.37 180)
      (effects (font (size 1.27 1.27)) (justify left))
      (uuid 84bef0ab-6c06-4ca4-a57f-835465a61c5a)
    )
    (instances
      (project "Helmholtz-Cage-PCB"
        (path "/d9aaf895-1acf-4d4a-8c6d-173b9df47c18" (page "2"))
      )
    )
  )

  (sheet (at 234.95 74.93) (size 30.48 13.97) (fields_autoplaced)
    (stroke (width 0.1524) (type solid))
    (fill (color 0 0 0 0.0000))
    (uuid fc8e43cb-a968-4afb-924c-0f97813ab19f)
    (property "Sheetname" "Buttons" (at 234.95 74.2184 0)
      (effects (font (size 1.27 1.27)) (justify left bottom))
    )
    (property "Sheetfile" "buttons.kicad_sch" (at 234.95 89.4846 0)
      (effects (font (size 1.27 1.27)) (justify left top))
    )
    (property "Field2" "" (at 234.95 74.93 0)
      (effects (font (size 1.27 1.27)) hide)
    )
    (pin "ON{slash}OFF MAJOR SWITCH" input (at 234.95 81.28 180)
      (effects (font (size 1.27 1.27)) (justify left))
      (uuid 83cfc31e-17e2-4053-9d86-c8d49995106c)
    )
    (instances
      (project "Helmholtz-Cage-PCB"
        (path "/d9aaf895-1acf-4d4a-8c6d-173b9df47c18" (page "5"))
      )
    )
  )

  (sheet_instances
    (path "/" (page "1"))
  )
)
